-----------------------------251803576311549838173498707274
Content-Disposition: form-data; name="to"

{empfänger_in}@mcg-dresden.lernsax.de
-----------------------------251803576311549838173498707274
Content-Disposition: form-data; name="send"

1
-----------------------------251803576311549838173498707274
Content-Disposition: form-data; name="text"

{nachrichtentext}
-----------------------------251803576311549838173498707274
Content-Disposition: form-data; name="file"; filename=""
Content-Type: application/octet-stream


-----------------------------251803576311549838173498707274--